[
    {
      "thingName": "taAe52C1J4mXPcn"
    },
    {
      "thingName": "7HsfiHjkydXrlW6"
    },
    {
      "thingName": "T446ma353vpln7T"
    },
    {
      "thingName": "r2BWbgfaYCe82jE"
    },
    {
      "thingName": "tYCDkLXybn03yY1"
    },
    {
      "thingName": "0NZReoq419tUrmJ"
    },
    {
      "thingName": "FBxgNN4QTCIERNW"
    },
    {
      "thingName": "rGH5O7se0SADAZv"
    },
    {
      "thingName": "EHgbUE9XgkaWbEg"
    },
    {
      "thingName": "MmC2irdXGVG8Mff"
    },
    {
      "thingName": "2WOEHENt2OgKHW2"
    },
    {
      "thingName": "smSAN63fwKX9EZe"
    },
    {
      "thingName": "LQ6fVts497vzCaC"
    },
    {
      "thingName": "peNgjeHrjN7Dz3R"
    },
    {
      "thingName": "HMqQU1bCY3JJeRE"
    },
    {
      "thingName": "YobFcCKdDU4TZlD"
    },
    {
      "thingName": "ooHzBHVtpzl9dC5"
    },
    {
      "thingName": "oFOez0dOpmdRgbE"
    },
    {
      "thingName": "0NLmnBRrPwULdqG"
    },
    {
      "thingName": "6YxLr7HW3fEQ8I1"
    },
    {
      "thingName": "4fYN9OSyJjVEYHM"
    },
    {
      "thingName": "QJqBDt8se4X12Sw"
    },
    {
      "thingName": "0u9HE4YFDYCDZS3"
    },
    {
      "thingName": "6bnizN0xoBUJfYq"
    },
    {
      "thingName": "U0q7nOJYCAG3236"
    },
    {
      "thingName": "rVzWKFMyJfIc063"
    },
    {
      "thingName": "m4md8e7GjZAIYQp"
    },
    {
      "thingName": "PMoQnKqFnIgDLFl"
    },
    {
      "thingName": "VaCs2E86VnUQRCr"
    },
    {
      "thingName": "qw8UAuwMQpx415c"
    },
    {
      "thingName": "OU4W8XAsJvz5rDE"
    },
    {
      "thingName": "JpyXDOjjqtaqnef"
    },
    {
      "thingName": "A2U3myVHktFNyKF"
    },
    {
      "thingName": "oMr8GC5fmlCWmXv"
    },
    {
      "thingName": "5QkXFgcABdxJaSi"
    },
    {
      "thingName": "GvLZhaxjctlkoyO"
    },
    {
      "thingName": "uL3f8kNbGF3Agvf"
    },
    {
      "thingName": "SIb6uebMXZEQeaL"
    },
    {
      "thingName": "q0zZfbCgkAXkDzR"
    },
    {
      "thingName": "HXWEJ8UV4IcAlLm"
    },
    {
      "thingName": "vpkVGjUQAHI3rkQ"
    },
    {
      "thingName": "yo4F0YpTbVqW1EL"
    },
    {
      "thingName": "fu5rjprZEmDwBoD"
    },
    {
      "thingName": "9Ry8bUR17pR5uzv"
    },
    {
      "thingName": "0IDBobq3Le9sTg1"
    },
    {
      "thingName": "emoVt2zCiQZQQc7"
    },
    {
      "thingName": "MghL0A6UNs5DXsU"
    },
    {
      "thingName": "TWQwFs0iDRXJQBz"
    },
    {
      "thingName": "us72CiB5HQddSjJ"
    },
    {
      "thingName": "nJ61Fw4wAIUa4iN"
    }
  ]